{
    "rabbit_version": "3.7.3-management",
    "users": [
        {
            "name": "guest",
            "password_hash": "GvBBanC2+B+Ypf7txfBYdb3V0AcFQskjEgpbPJ2ECB2rsDe+",
            "hashing_algorithm": "rabbit_password_hashing_sha256",
            "tags": "administrator"
        }
    ],
    "vhosts": [
        {
            "name": "/"
        },
        {
            "name": "xr"
        }
    ],
    "permissions": [
        {
            "user": "guest",
            "vhost": "/",
            "configure": ".*",
            "write": ".*",
            "read": ".*"
        },
        {
            "user": "guest",
            "vhost": "xr",
            "configure": ".*",
            "write": ".*",
            "read": ".*"
        }
    ],
    "topic_permissions": [],
    "parameters": [],
    "policies": [],
    "queues": [
        {
            "name": "track-server",
            "vhost": "xr",
            "durable": true,
            "auto_delete": false,
            "arguments": {}
        }
    ],
    "exchanges": [
        {
            "name": "tracking",
            "vhost": "xr",
            "type": "fanout",
            "durable": true,
            "auto_delete": false,
            "internal": false,
            "arguments": {}
        }
    ],
    "bindings": [
        {
            "source": "tracking",
            "vhost": "xr",
            "destination": "track-server",
            "destination_type": "queue",
            "routing_key": "tracking",
            "arguments": {
                "routing_key": "tracking"
            }
        }
    ]
}